{
"cr_time": 1519825137,
"message_id": "message id",
"subscribers": ["{{$subscriber}}","wallet2","wallet3"],
"wallet": "0xb89a9bc53f3f0f48a013a586071e323d6b07ed05",
"act_id": "act id",
"signature": "signature",
"type": "order",
"message_type": "signal",
"strategy_id":"0",
"action": {
    "generated": 1519825137,
    "instrument": "{{$currency}}",
    "resolution": 1519829137,
    "order_name": "portfolio chng",
    "order_type": "--",
    "order_category": "market",
    "action_id": "1",
    "action": "{{$action}}",
    "quantity": "{{$amount}}%",
    "price_limit": 39.99,
    "price_stop": 49.00,
    "stoploss_option": "--",
    "position": "--",
    "time_in_force": 1519822137,
    "strategy_name": "portfolioM"
    }
}
